{
  "results": [
    {
      "popularity": 164.955,
      "vote_count": 2103,
      "video": false,
      "poster_path": "/iZf0KyrE25z1sage4SYFLCCrMi9.jpg",
      "id": 530915,
      "adult": false,
      "backdrop_path": "/2WgieNR1tGHlpJUsolbVzbUbE1O.jpg",
      "original_language": "en",
      "original_title": "1917",
      "genre_ids": [
        28,
        18,
        10752
      ],
      "title": "1917",
      "vote_average": 8.1,
      "overview": "At the height of the First World War, two young British soldiers, Schofield and Blake are given a seemingly impossible mission. In a race against time, they must cross enemy territory and deliver a message that will stop a deadly attack on hundreds of soldiers—Blake's own brother among them.",
      "release_date": "2019-12-10"
    },
    {
      "popularity": 164.433,
      "vote_count": 625,
      "video": false,
      "poster_path": "/y95lQLnuNKdPAzw9F9Ab8kJ80c3.jpg",
      "id": 38700,
      "adult": false,
      "backdrop_path": "/upUy2QhMZEmtypPW3PdieKLAHxh.jpg",
      "original_language": "en",
      "original_title": "Bad Boys for Life",
      "genre_ids": [
        28,
        80,
        53
      ],
      "title": "Bad Boys for Life",
      "vote_average": 6.5,
      "overview": "Marcus and Mike are forced to confront new threats, career changes, and midlife crises as they join the newly created elite team AMMO of the Miami police department to take down the ruthless Armando Armas, the vicious leader of a Miami drug cartel.",
      "release_date": "2020-01-15"
    },
    {
      "popularity": 128.871,
      "vote_count": 202,
      "video": false,
      "poster_path": "/hrraiBBuhu5E50otrtrykNqnOt5.jpg",
      "id": 448119,
      "adult": false,
      "backdrop_path": "/lG802rseTZcN9mtLsQPVfApEVzM.jpg",
      "original_language": "en",
      "original_title": "Dolittle",
      "genre_ids": [
        28,
        12,
        35,
        14,
        10751
      ],
      "title": "Dolittle",
      "vote_average": 6.4,
      "overview": "After losing his wife seven years earlier, the eccentric Dr. John Dolittle, famed doctor and veterinarian of Queen Victoria’s England, hermits himself away behind the high walls of Dolittle Manor with only his menagerie of exotic animals for company. But when the young queen falls gravely ill, a reluctant Dolittle is forced to set sail on an epic adventure to a mythical island in search of a cure, regaining his wit and courage as he crosses old adversaries and discovers wondrous creatures.",
      "release_date": "2020-01-01"
    },
    {
      "popularity": 64.889,
      "vote_count": 960,
      "video": false,
      "poster_path": "/mSmiB8XjUnR1GSIljuCPGsk0cwX.jpg",
      "id": 331482,
      "adult": false,
      "backdrop_path": "/3uTxPIdVEXxHpsHOHdJC24QebBV.jpg",
      "original_language": "en",
      "original_title": "Little Women",
      "genre_ids": [
        18,
        10749
      ],
      "title": "Little Women",
      "vote_average": 8,
      "overview": "Four sisters come of age in America in the aftermath of the Civil War.",
      "release_date": "2019-12-25"
    },
    {
      "popularity": 46.485,
      "vote_count": 15,
      "video": false,
      "poster_path": "/4e0Der73TmhAeA9grTo2Kkx0pAd.jpg",
      "id": 503917,
      "adult": false,
      "backdrop_path": "/1wv5gjKrxaQKn6CyyMYcANY9soM.jpg",
      "original_language": "cn",
      "original_title": "肥龍過江",
      "genre_ids": [
        28,
        35
      ],
      "title": "Enter The Fat Dragon",
      "vote_average": 2.8,
      "overview": "Fallon Zhu (Donnie Yen) is a Hong Kong police officer – an agile fighter with a high crime detection rate. Dumped by his fiancée Chloe (Niki Chow), Fallon was heartbroken and start indulging in food. In six months, he became 200+ pounds. His superior, Superintendent Huang, puts him in charge of escorting a convict to Japan. A series of mishaps befall him in Japan; not only did he lose all of his belongings, he also lost the convict in his custody. His luck overturned when he met Thor (Wong Jing), another Hong Kong citizen. The both of them join forces to solve the mystery behind Fallon’s convict’s strange and sudden death. Troubles continue to snowball, affecting those around Fallon. Fallon is thus determined to uproot the gang, regardless.",
      "release_date": "2020-01-23"
    },
    {
      "popularity": 49.099,
      "vote_count": 132,
      "video": false,
      "poster_path": "/jtrhTYB7xSrJxR1vusu99nvnZ1g.jpg",
      "id": 522627,
      "adult": false,
      "backdrop_path": "/9Qfawg9WT3cSbBXQgDRuWbYS9lj.jpg",
      "original_language": "en",
      "original_title": "The Gentlemen",
      "genre_ids": [
        28,
        35,
        80
      ],
      "title": "The Gentlemen",
      "vote_average": 7.7,
      "overview": "American expat Mickey Pearson has built a highly profitable marijuana empire in London. When word gets out that he’s looking to cash out of the business forever it triggers plots, schemes, bribery and blackmail in an attempt to steal his domain out from under him.",
      "release_date": "2020-01-01"
    },
    {
      "popularity": 43.581,
      "vote_count": 34,
      "video": false,
      "poster_path": "/mBBBXseq4k4dI63k06XIrsc02j8.jpg",
      "id": 542224,
      "adult": false,
      "backdrop_path": "/en1XAePgWqNSXb82luUMmo5u3cF.jpg",
      "original_language": "en",
      "original_title": "Gretel & Hansel",
      "genre_ids": [
        14,
        27,
        53
      ],
      "title": "Gretel & Hansel",
      "vote_average": 5.8,
      "overview": "A long time ago in a distant fairy tale countryside, a young girl leads her little brother into a dark wood in desperate search of food and work, only to stumble upon a nexus of terrifying evil.",
      "release_date": "2020-01-30"
    },
    {
      "popularity": 47.364,
      "vote_count": 0,
      "video": false,
      "poster_path": "/aQvJ5WPzZgYVDrxLX4R6cLJCEaQ.jpg",
      "id": 454626,
      "adult": false,
      "backdrop_path": "/tCUcf3oNWMW8kwAj3WC6CvIN5ah.jpg",
      "original_language": "en",
      "original_title": "Sonic the Hedgehog",
      "genre_ids": [
        28,
        12,
        35,
        14,
        878,
        10751
      ],
      "title": "Sonic the Hedgehog",
      "vote_average": 0,
      "overview": "Based on the global blockbuster videogame franchise from Sega, Sonic the Hedgehog tells the story of the world’s speediest hedgehog as he embraces his new home on Earth. In this live-action adventure comedy, Sonic and his new best friend team up to defend the planet from the evil genius Dr. Robotnik and his plans for world domination.",
      "release_date": "2020-02-12"
    },
    {
      "popularity": 40.793,
      "vote_count": 1353,
      "video": false,
      "poster_path": "/dtRbVsUb5O12WWO54SRpiMtHKC0.jpg",
      "id": 338967,
      "adult": false,
      "backdrop_path": "/3ghImmHdp4RnC3UkL6hpLayclnb.jpg",
      "original_language": "en",
      "original_title": "Zombieland: Double Tap",
      "genre_ids": [
        28,
        35,
        27
      ],
      "title": "Zombieland: Double Tap",
      "vote_average": 6.9,
      "overview": "Columbus, Tallahassee, Wichita, and Little Rock move to the American heartland as they face off against evolved zombies, fellow survivors, and the growing pains of the snarky makeshift family.",
      "release_date": "2019-10-09"
    },
    {
      "popularity": 38.743,
      "vote_count": 153,
      "video": false,
      "poster_path": "/6kmxXfg3aSWrzUlEPt2L0YD4jz9.jpg",
      "id": 511322,
      "adult": false,
      "backdrop_path": "/qhWuoyUQ01ZzsbNfjbddAoK6uEc.jpg",
      "original_language": "en",
      "original_title": "The Good Liar",
      "genre_ids": [
        80,
        18,
        9648
      ],
      "title": "The Good Liar",
      "vote_average": 6.5,
      "overview": "Career con man Roy sets his sights on his latest mark: recently widowed Betty, worth millions. And he means to take it all. But as the two draw closer, what should have been another simple swindle takes on the ultimate stakes.",
      "release_date": "2019-11-08"
    },
    {
      "popularity": 32.884,
      "vote_count": 730,
      "video": false,
      "poster_path": "/3nk9UoepYmv1G9oP18q6JJCeYwN.jpg",
      "id": 503919,
      "adult": false,
      "backdrop_path": "/i51wnN9phojyn14xHjQt6rv1r0x.jpg",
      "original_language": "en",
      "original_title": "The Lighthouse",
      "genre_ids": [
        18,
        14,
        27,
        9648
      ],
      "title": "The Lighthouse",
      "vote_average": 7.7,
      "overview": "Two lighthouse keepers try to maintain their sanity while living on a remote and mysterious New England island in the 1890s.",
      "release_date": "2019-10-18"
    },
    {
      "popularity": 34.355,
      "vote_count": 178,
      "video": false,
      "poster_path": "/jlHL2BH176JApGiLnNQLQgdjMFd.jpg",
      "id": 443791,
      "adult": false,
      "backdrop_path": "/fYPiQewg7ogbzro2XcCTACSB2KC.jpg",
      "original_language": "en",
      "original_title": "Underwater",
      "genre_ids": [
        27,
        878,
        53
      ],
      "title": "Underwater",
      "vote_average": 6,
      "overview": "After an earthquake destroys their underwater station, six researchers must navigate two miles along the dangerous, unknown depths of the ocean floor to make it to safety in a race against time.",
      "release_date": "2020-01-08"
    },
    {
      "popularity": 27.267,
      "vote_count": 0,
      "video": false,
      "poster_path": "/n2C6jRK9PtPIs99RQhKtqGlsnsO.jpg",
      "id": 592834,
      "adult": false,
      "backdrop_path": "/xx3x35BS7xL6IsG3tU2qrxsHwiX.jpg",
      "original_language": "en",
      "original_title": "My Spy",
      "genre_ids": [
        28,
        35,
        10751
      ],
      "title": "My Spy",
      "vote_average": 0,
      "overview": "A hardened CIA operative finds himself at the mercy of a precocious 9-year-old girl, having been sent undercover to surveil her family.",
      "release_date": "2020-02-07"
    },
    {
      "popularity": 27.78,
      "vote_count": 17,
      "video": false,
      "poster_path": "/w8NECPBCViY0h7945WcmNUIROEm.jpg",
      "id": 442065,
      "adult": false,
      "backdrop_path": "/kGswNLCAB4drembvu16tx38dtDd.jpg",
      "original_language": "en",
      "original_title": "The Last Full Measure",
      "genre_ids": [
        18
      ],
      "title": "The Last Full Measure",
      "vote_average": 7.8,
      "overview": "The Last Full Measure tells the true story of Vietnam War hero William H. Pitsenbarger , a U.S. Air Force Pararescuemen (also known as a PJ) medic who personally saved over sixty men. During a rescue mission on April 11, 1966, he was offered the chance to escape on the last helicopter out of a combat zone heavily under fire, but he stayed behind to save and defend the lives of his fellow soldiers of the U.S. Army's 1st Infantry Division, before making the ultimate sacrifice in the bloodiest battle of the war.",
      "release_date": "2020-01-23"
    },
    {
      "popularity": 38.205,
      "vote_count": 0,
      "video": false,
      "poster_path": "/zf5TN6Ez0XlAuTGFxW2lYPUiLOr.jpg",
      "id": 509598,
      "adult": false,
      "backdrop_path": "/nNjXu0eJYwewwwyTsBuXOmQEl5N.jpg",
      "original_language": "en",
      "original_title": "Mr. Jones",
      "genre_ids": [
        18,
        36,
        53
      ],
      "title": "Mr. Jones",
      "vote_average": 0,
      "overview": "In March 1933, Welsh journalist Gareth Jones travel to Ukraine, where he experiences at first hand the horrors of a famine. Everywhere he goes he meets henchmen of the Soviet secret service who are determined to prevent news about the catastrophe from getting out. Stalin’s forced collectivisation of agriculture has resulted in misery and ruin; the policy is tantamount to mass murder. Supported by Ada Brooks, a New York Times reporter, Jones succeeds in spreading the shocking news.",
      "release_date": "2020-02-07"
    },
    {
      "popularity": 24.666,
      "vote_count": 260,
      "video": false,
      "poster_path": "/3NTEMlG5mQdIAlKDl3AJG0rX29Z.jpg",
      "id": 531428,
      "adult": false,
      "backdrop_path": "/joXf2ToDZjVMBxWrzijQ3V9cC8p.jpg",
      "original_language": "fr",
      "original_title": "Portrait de la jeune fille en feu",
      "genre_ids": [
        18,
        10749
      ],
      "title": "Portrait of a Lady on Fire",
      "vote_average": 8.4,
      "overview": "On an isolated island in Brittany at the end of the eighteenth century, a female painter is obliged to paint a wedding portrait of a young woman.",
      "release_date": "2019-06-17"
    },
    {
      "popularity": 28.576,
      "vote_count": 12886,
      "video": false,
      "poster_path": "/jUFjMoLh8T2CWzHUSjKCojI5SHu.jpg",
      "id": 673,
      "adult": false,
      "backdrop_path": "/vbk5CfaAHOjQPSAcYm6AoRRz2Af.jpg",
      "original_language": "en",
      "original_title": "Harry Potter and the Prisoner of Azkaban",
      "genre_ids": [
        12,
        14
      ],
      "title": "Harry Potter and the Prisoner of Azkaban",
      "vote_average": 8,
      "overview": "Harry, Ron and Hermione return to Hogwarts for another magic-filled year. Harry comes face to face with danger yet again, this time in the form of escaped convict, Sirius Black—and turns to sympathetic Professor Lupin for help.",
      "release_date": "2004-05-31"
    },
    {
      "popularity": 25.245,
      "id": 635199,
      "video": false,
      "vote_count": 0,
      "vote_average": 0,
      "title": "Howling Village",
      "release_date": "2020-02-07",
      "original_language": "ja",
      "original_title": "犬鳴村",
      "genre_ids": [
        27
      ],
      "backdrop_path": null,
      "adult": false,
      "overview": "Many horror stories exist about Inunaki Village. The village is now completely deserted.\r Kanae is a clinical psychologist, who can see spirits. Her older brother Yuma and Yuma’s girlfriend Akina go to Inunaki Village. Due to that, Kanae becomes involved in a mysterious case.",
      "poster_path": "/i9a1FQGW8u4jW4KIEGVCkaAvcQ9.jpg"
    },
    {
      "popularity": 30.693,
      "vote_count": 281,
      "video": false,
      "poster_path": "/gbPfvwBqbiHpQkYZQvVwB6MVauV.jpg",
      "id": 525661,
      "adult": false,
      "backdrop_path": "/nj84vpuUWdbmYktBzjiWn5Ny1ZF.jpg",
      "original_language": "en",
      "original_title": "Bombshell",
      "genre_ids": [
        18
      ],
      "title": "Bombshell",
      "vote_average": 6.8,
      "overview": "Bombshell is a revealing look inside the most powerful and controversial media empire of all time; and the explosive story of the women who brought down the infamous man who created it.",
      "release_date": "2019-12-13"
    },
    {
      "popularity": 24.001,
      "vote_count": 43,
      "video": false,
      "poster_path": "/p08FoXVFgcRm5QZBaGj0VKa2W2Y.jpg",
      "id": 422803,
      "adult": false,
      "backdrop_path": "/AgYlP6g4vrNn1sVsAIvflW3TfJU.jpg",
      "original_language": "en",
      "original_title": "A Shaun the Sheep Movie: Farmageddon",
      "genre_ids": [
        16,
        35,
        10751
      ],
      "title": "A Shaun the Sheep Movie: Farmageddon",
      "vote_average": 7.1,
      "overview": "When an alien with amazing powers crash-lands near Mossy Bottom Farm, Shaun the Sheep goes on a mission to shepherd the intergalactic visitor home before a sinister organization can capture her.",
      "release_date": "2019-09-26"
    }
  ],
  "page": 1,
  "total_results": 250,
  "dates": {
    "maximum": "2020-03-02",
    "minimum": "2020-02-14"
  },
  "total_pages": 13
}