{
  "page": 1,
  "total_results": 1488,
  "total_pages": 75,
  "results": [
    {
      "popularity": 28.656,
      "vote_count": 18083,
      "video": false,
      "poster_path": "/adw6Lq9FiC9zjYEpOqfq03ituwp.jpg",
      "id": 550,
      "adult": false,
      "backdrop_path": "/mMZRKb3NVo5ZeSPEIaNW9buLWQ0.jpg",
      "original_language": "en",
      "original_title": "Fight Club",
      "genre_ids": [
        18
      ],
      "title": "Fight Club",
      "vote_average": 8.4,
      "overview": "A ticking-time-bomb insomniac and a slippery soap salesman channel primal male aggression into a shocking new form of therapy. Their concept catches on, with underground \"fight clubs\" forming in every town, until an eccentric gets in the way and ignites an out-of-control spiral toward oblivion.",
      "release_date": "1999-10-15"
    },
    {
      "popularity": 9.65,
      "vote_count": 773,
      "video": false,
      "poster_path": "/yONLyCSO0zyDvmVJO2i1U4yrNHE.jpg",
      "id": 345922,
      "adult": false,
      "backdrop_path": "/yzAo91sIwQrbYSh9bQrbQ12wZnI.jpg",
      "original_language": "en",
      "original_title": "Fist Fight",
      "genre_ids": [
        35
      ],
      "title": "Fist Fight",
      "vote_average": 6,
      "overview": "When one school teacher gets the other fired, he is challenged to an after-school fight.",
      "release_date": "2017-02-16"
    },
    {
      "popularity": 5.8,
      "id": 14286,
      "video": false,
      "vote_count": 59,
      "vote_average": 7.8,
      "title": "Why We Fight",
      "release_date": "2005-01-01",
      "original_language": "en",
      "original_title": "Why We Fight",
      "genre_ids": [
        99,
        18,
        36
      ],
      "backdrop_path": "/rDwvllkfMDNs7CFb8AXwAVjNfnO.jpg",
      "adult": false,
      "overview": "Is American foreign policy dominated by the idea of military supremacy? Has the military become too important in American life? Jarecki's shrewd and intelligent polemic would seem to give an affirmative answer to each of these questions.",
      "poster_path": "/kfOmnlwt1rrhxmxc05X3i9mHSOs.jpg"
    },
    {
      "popularity": 3.853,
      "vote_count": 17,
      "video": false,
      "poster_path": "/jIPWkzF9srlU8eZTldLM6JYZwkO.jpg",
      "id": 385383,
      "adult": false,
      "backdrop_path": "/orRyeLPHjCtUqHjW1HJ3PnY5yzb.jpg",
      "original_language": "en",
      "original_title": "Fight Valley",
      "genre_ids": [
        28,
        18
      ],
      "title": "Fight Valley",
      "vote_average": 3.7,
      "overview": "When Tory Coro turns up dead, the neighborhood turns up silent. Rumor has it she became yet another victim of the small town known as FIGHT VALLEY. Tory's sister Windsor moves to town to begin her own investigation on her sister's mysterious death after weeks of no leads from the police. She's quick to learn that Tory fought for money to make ends meet. If girl-next-door Windsor is going to make her way into FIGHT VALLEY to find the truth about Tory, she's going to have to fight her way in. \"Jabs\" (Miesha Tate) swore she would never throw a punch in the Valley again. Jabs now finds herself training Windsor to survive the painful, unexpected path she's about to take. Every corner. Every alley. Every doorway. She must follow the last footsteps of her sister in order to come face-to-face with Tory's killer in FIGHT VALLEY.",
      "release_date": "2016-07-22"
    },
    {
      "popularity": 3.41,
      "id": 108251,
      "video": false,
      "vote_count": 18,
      "vote_average": 6.3,
      "title": "Girl Fight",
      "release_date": "2011-10-03",
      "original_language": "en",
      "original_title": "Girl Fight",
      "genre_ids": [
        18,
        10770
      ],
      "backdrop_path": "/vDvDF9MKOyg42AmWj4EXw3wp0Je.jpg",
      "adult": false,
      "overview": "Inspired by a true story, Girl Fight recounts the harrowing story of a 16-year-old, stellar high school student whose life spirals downward when her former friends conspire to upload onto the Internet a shocking video of them beating her up.",
      "poster_path": "/mie2uVWWI2iNlkSdHaOjk1J3irW.jpg"
    },
    {
      "popularity": 3.724,
      "id": 325365,
      "video": false,
      "vote_count": 33,
      "vote_average": 6.6,
      "title": "Dawg Fight",
      "release_date": "2015-03-13",
      "original_language": "en",
      "original_title": "Dawg Fight",
      "genre_ids": [
        99
      ],
      "backdrop_path": "/qStqSukfgt2LWN5Y3xb4STYVN35.jpg",
      "adult": false,
      "overview": "In a crime-plagued neighborhood near Miami, brutal, bare-knuckled backyard fights give young men a chance to earn money -- and self-respect.",
      "poster_path": "/faxT9iweirNGU8oDQTdrTkwfacf.jpg"
    },
    {
      "popularity": 4.854,
      "vote_count": 21,
      "video": false,
      "poster_path": "/iI9c8XNdPuwB4RYbHMd62QNhoRK.jpg",
      "id": 440777,
      "adult": false,
      "backdrop_path": "/qziKhMyrVqj567jlbj55GpBdKf9.jpg",
      "original_language": "en",
      "original_title": "Female Fight Club",
      "genre_ids": [
        28
      ],
      "title": "Female Fight Club",
      "vote_average": 5.2,
      "overview": "A former fighter reluctantly returns to the life she abandoned in order to help her sister survive the sadistic world of illegal fighting and the maniac who runs it.",
      "release_date": "2017-03-16"
    },
    {
      "popularity": 2.844,
      "id": 482986,
      "video": false,
      "vote_count": 7,
      "vote_average": 6.4,
      "title": "The Fight",
      "release_date": "2019-03-15",
      "original_language": "en",
      "original_title": "The Fight",
      "genre_ids": [
        35,
        18
      ],
      "backdrop_path": "/kUtVu31GzUWiMszQivJ8XPAmM2X.jpg",
      "adult": false,
      "overview": "Tina lives in a quiet seaside town but her life is anything but quiet - her mother is threatening to leave her father, her daughter is being bullied and she and her husband Mick are juggling full time jobs and three children. Determined to ditch the dysfunction and beat her inner demons, Tina puts on her fighting gloves - literally, stepping into the boxing ring to sweat out her anxieties and punch up her self-worth. But does she have what it takes to get her family off the ropes and emerge victorious?",
      "poster_path": "/g63cBAt8UBVudSfatwl8NwTwYTu.jpg"
    },
    {
      "popularity": 3.834,
      "vote_count": 11,
      "video": false,
      "poster_path": "/qVyOyga4g4QlMTmcyCbmtQC6Et9.jpg",
      "id": 148526,
      "adult": false,
      "backdrop_path": "/60jGX8lB8yQAZREi2jocVmB7XQq.jpg",
      "original_language": "en",
      "original_title": "Forced To Fight",
      "genre_ids": [
        28,
        53
      ],
      "title": "Forced To Fight",
      "vote_average": 4.2,
      "overview": "Once a legend in the brutal world of illicit underground fighting, Shane Slavin (Daniels) decides to turn his life around, promising his wife and young son he's fought his last battle. But when his younger brother betrays a ruthless crime boss (Weller), Shane is forced back into the arena to pay his brother's debts and to protect his family.",
      "release_date": "2011-08-31"
    },
    {
      "popularity": 2.294,
      "id": 653727,
      "video": false,
      "vote_count": 0,
      "vote_average": 0,
      "title": "The Fight",
      "release_date": "2020-01-23",
      "original_language": "en",
      "original_title": "The Fight",
      "genre_ids": [
        99
      ],
      "backdrop_path": null,
      "adult": false,
      "overview": "Inside the ACLU, a team of scrappy lawyers battle Trump’s historic assault on civil liberties.",
      "poster_path": "/ncL1UZ7QJy922flzh9DLlfzYbUe.jpg"
    },
    {
      "popularity": 2.277,
      "id": 265672,
      "video": false,
      "vote_count": 4,
      "vote_average": 5.5,
      "title": "Fight Church",
      "release_date": "2014-09-16",
      "original_language": "en",
      "original_title": "Fight Church",
      "genre_ids": [
        99
      ],
      "backdrop_path": null,
      "adult": false,
      "overview": "A documentary about the confluence of Christianity and mixed martial arts, including ministries which train fighters. The film follows several pastors and popular fighters in their quest to reconcile their faith with a sport that many consider violent and barbaric. Faith is tried and questions are raised. Can you really love your neighbor as yourself and then punch him in the face?",
      "poster_path": "/12CNBjNktLSKcTtXMvQAPv9zH3j.jpg"
    },
    {
      "popularity": 3.286,
      "id": 559578,
      "video": false,
      "vote_count": 7,
      "vote_average": 5.1,
      "title": "Alone We Fight",
      "release_date": "2018-11-06",
      "original_language": "en",
      "original_title": "Alone We Fight",
      "genre_ids": [
        10752
      ],
      "backdrop_path": "/fyGsmCm6op6c90WVYxhGxziOp3P.jpg",
      "adult": false,
      "overview": "Facing mounting odds, a small but determined band of American soldiers venture into dangerous enemy territory on a mission to stop an advancing German unit from breaking through the Allied line.",
      "poster_path": "/y0QXD8zSxpBsyQSKN9mg5diYexV.jpg"
    },
    {
      "popularity": 3.592,
      "vote_count": 19,
      "video": false,
      "poster_path": "/5LKQkKgkgip8PB8Is4doO94GI2L.jpg",
      "id": 39342,
      "adult": false,
      "backdrop_path": "/bBDyMixUi3TcWFtcR8fcoAhFqM6.jpg",
      "original_language": "en",
      "original_title": "Fight for Your Life",
      "genre_ids": [
        80,
        18,
        53
      ],
      "title": "Fight for Your Life",
      "vote_average": 6.1,
      "overview": "A minister dispenses justice on three convicts who take his family hostage.",
      "release_date": "1977-10-03"
    },
    {
      "popularity": 4.456,
      "vote_count": 61,
      "video": false,
      "poster_path": "/4caX3IZkf7n2QCbxaJO3hyn0SCm.jpg",
      "id": 45966,
      "adult": false,
      "backdrop_path": "/cjqyykBlWldT1CWjkeFcyj4r9Jf.jpg",
      "original_language": "en",
      "original_title": "Day of the Fight",
      "genre_ids": [
        99
      ],
      "title": "Day of the Fight",
      "vote_average": 5.9,
      "overview": "American short subject documentary film in black-and-white, which is notable as the first picture directed by Stanley Kubrick. Kubrick financed the film himself, and it is based on an earlier photo feature he had done as a photographer for Look magazine in 1949. 'Day of the Fight' shows Irish-American middleweight boxer Walter Cartier during the height of his career, on the day of a fight with black middleweight Bobby James, which took place on April 17, 1950.",
      "release_date": "1951-04-26"
    },
    {
      "popularity": 8.402,
      "vote_count": 124,
      "video": false,
      "poster_path": "/tIfw9XIYnP0oygZgwPScK421yHW.jpg",
      "id": 355020,
      "adult": false,
      "backdrop_path": "/wWX8L8ujV8AL8dFZ8h9quqcewE.jpg",
      "original_language": "uk",
      "original_title": "Winter on Fire: Ukraine's Fight for Freedom",
      "genre_ids": [
        99
      ],
      "title": "Winter on Fire: Ukraine's Fight for Freedom",
      "vote_average": 8,
      "overview": "A documentary on the unrest in Ukraine during 2013 and 2014, as student demonstrations supporting European integration grew into a violent revolution calling for the resignation of President Viktor F. Yanukovich.",
      "release_date": "2015-10-09"
    },
    {
      "popularity": 2.71,
      "vote_count": 34,
      "video": false,
      "poster_path": "/r5TUs76PbO68b6qmHgWjw4Nsz39.jpg",
      "id": 55461,
      "adult": false,
      "backdrop_path": null,
      "original_language": "en",
      "original_title": "Donald's Snow Fight",
      "genre_ids": [
        16
      ],
      "title": "Donald's Snow Fight",
      "vote_average": 7.2,
      "overview": "It's snowed, and Donald Duck is going sledding. Meanwhile, his nephews have built a snowman at the bottom of the hill. Donald aims his sled at their snowman and demolishes it, so the boys get even by including a boulder in the bottom of their next snowman. This means war, so they retreat to opposing snow forts for battle.",
      "release_date": "1942-04-10"
    },
    {
      "popularity": 2.391,
      "id": 289732,
      "video": false,
      "vote_count": 18,
      "vote_average": 3.6,
      "title": "Zombie Fight Club",
      "release_date": "2014-10-23",
      "original_language": "zh",
      "original_title": "Zombie Fight Club",
      "genre_ids": [
        28,
        27
      ],
      "backdrop_path": "/qrZssI8koUdRxkYnrOKMRY3m5Fq.jpg",
      "adult": false,
      "overview": "It's the end of the century at a corner of the city in a building riddled with crime - Everyone in the building has turned into zombies. After Jenny's boyfriend is killed in a zombie attack, she faces the challenge of surviving in the face of adversity. In order to stay alive, she struggles with Andy to flee danger.",
      "poster_path": "/7k9db7pJyTaVbz3G4eshGltivR1.jpg"
    },
    {
      "popularity": 2.849,
      "vote_count": 27,
      "video": false,
      "poster_path": "/qeceU9AsdHu9H6ZZax4MfeDj7A7.jpg",
      "id": 488971,
      "adult": false,
      "backdrop_path": "/ahK0FqZ4rQItacXuS1faxRo1WHW.jpg",
      "original_language": "en",
      "original_title": "You Can't Fight Christmas",
      "genre_ids": [
        35
      ],
      "title": "You Can't Fight Christmas",
      "vote_average": 5.5,
      "overview": "Christmas designer Leslie Major (Brely Evans) is the biggest fan of Christmas ever. She is like a tidal wave of Yuletide cheer. Her biggest job every year is decorating the lobby of the famed Chesterton Hotel. As she is on a ladder decorating the tree, she falls into the arms of Edmund James (Andra Fuller) - the grandson of the owner JJ James. Edmund is all business and thinks Christmas is superficial and frivolous.",
      "release_date": "2017-11-01"
    },
    {
      "popularity": 2.559,
      "id": 550593,
      "video": false,
      "vote_count": 1,
      "vote_average": 6,
      "title": "The Trigonal: Fight for Justice",
      "release_date": "2018-09-26",
      "original_language": "tl",
      "original_title": "The Trigonal: Fight for Justice",
      "genre_ids": [
        28,
        18,
        53
      ],
      "backdrop_path": "/oIA5WGOtFH1SU0TpyMfXYrzWTXz.jpg",
      "adult": false,
      "overview": "An underground fighting circuit run by an international crime syndicate invades a retired MMA champion's small, idyllic island hometown. Syndicate thugs brutally assault his wife and kill his best friend, leaving him with no other choice but to fight for justice.",
      "poster_path": "/8E9Tbz8X1xLdtpMU9rMhiUdWXZs.jpg"
    },
    {
      "popularity": 1.983,
      "id": 196355,
      "video": false,
      "vote_count": 18,
      "vote_average": 6.5,
      "title": "Muhammad Ali's Greatest Fight",
      "release_date": "2013-10-04",
      "original_language": "en",
      "original_title": "Muhammad Ali's Greatest Fight",
      "genre_ids": [
        18
      ],
      "backdrop_path": "/o9zBoNSr7pzmC52m5lnOWxbo3ZL.jpg",
      "adult": false,
      "overview": "Muhammad Ali’s historic Supreme Court battle from behind closed doors. When Ali was drafted into the Vietnam War at the height of his boxing career, his claim to conscientious objector status led to a controversial legal battle that rattled the U.S. judicial system right up to the highest court in the land.",
      "poster_path": "/zbAWQ41NPaWbN0deyMuxF1ustmj.jpg"
    }
  ]
}